{
    "id": "49b662db-caa3-4dba-8831-b72f3cbfcddc",
    "priority": 4,
    "request": {
        "method": "GET",
        "urlPathPattern": "/court/([A-Z0-9]{5})/cases",
        "queryParameters": {
            "date": {
                "matches": "^(?!2020-01-01|2020-01-02|2020-01-03|2020-01-04)(\\d{4})-(\\d{2})-(\\d{2})$"
            },
            "hearingStatus": {
                "matches": "^(?:HEARD|UNHEARD)$"
            },
            "page": {
                "matches": "^3$"
            }
        }
    },
    "response": {
        "headers": {
            "Content-Type": "application/json"
        },
        "status": 200,
        "jsonBody": {
            "cases": [
                {
                    "caseId": "b947db6e-1439-42de-92d0-f5800d7d82f6",
                    "hearingId": "e28842a5-6884-4baa-b3e5-a9f825f8a038",
                    "hearingType": "Trial",
                    "urn": "7HD8BO3X8J5",
                    "pnc": "1965/0046583U",
                    "cro": "199999ABCDEF",
                    "courtCode": "B14LO",
                    "courtRoom": "8",
                    "source": "COMMON_PLATFORM",
                    "sessionStartTime": "2023-11-29T16:53:43",
                    "session": "AFTERNOON",
                    "probationStatus": "No record",
                    "offences": [
                        {
                            "offenceTitle": "Repetitious song playing (Girls just want to have fun)",
                            "offenceSummary": "It's just been on the radio too often.",
                            "act": "repetitious song playing.",
                            "sequenceNumber": 1,
                            "listNo": 4,
                            "offenceCode": "CJO3523"
                        }
                    ],
                    "defendantName": "Cyndi Craw LAUPER",
                    "name": {
                        "forename1": "Cyndi",
                        "forename2": "Craw",
                        "surname": "LAUPER"
                    },
                    "defendantAddress": {
                        "line1": "Studio 54",
                        "line5": "NEW YORK",
                        "postcode": "NY1 1NY"
                    },
                    "defendantDob": "1965-01-01",
                    "defendantSex": "NS",
                    "defendantType": "PERSON",
                    "defendantId": "e28842a5-6884-4baa-b3e5-a9f825f8a038",
                    "createdToday": false,
                    "removed": false,
                    "numberOfPossibleMatches": 0,
                    "caseComments": [],
                    "hearingEventType": "ConfirmedOrUpdated",
                    "confirmedOffender": false,
                    "personId": "1418b8f4-91bc-468d-b86f-b3100bc6bf96",
                    "caseMarkers": [
                        {
                            "markerTypeDescription": "Vulnerable or intimidated victim"
                        }
                    ],
                    "probationStatusActual": "UNCONFIRMED_NO_RECORD"
                },
                {
                    "caseId": "b17c728c-4bae-4d96-8825-bb10ae73ac9a",
                    "hearingId": "59ef7ab6-c74e-4da7-b159-913b2af6b593",
                    "hearingType": "Trial",
                    "urn": "6RK6864N0L6",
                    "pnc": "2023/4433736P",
                    "cro": "200750/23F",
                    "courtCode": "B14LO",
                    "courtRoom": "9",
                    "source": "COMMON_PLATFORM",
                    "sessionStartTime": "2023-11-29T09:34:05",
                    "session": "MORNING",
                    "probationStatus": "No record",
                    "offences": [
                        {
                            "offenceTitle": "Releasing to prod on Friday evening",
                            "offenceSummary": "Detailed summary of the test offence: Releasing to prod on Friday evening",
                            "act": "Contrary to Section 4A(1) and (5) of the Public Order Act 1986.",
                            "sequenceNumber": 1,
                            "listNo": 9,
                            "offenceCode": "PU86116",
                            "plea": {
                                "pleaValue": "NOT_GUILTY",
                                "pleaDate": "2023-07-05"
                            }
                        },
                        {
                            "offenceTitle": "Repetitious song playing (Girls just want to have fun)",
                            "offenceSummary": "Detailed summary of the test offence: Repetitious song playing (Girls just want to have fun)",
                            "act": "Contrary to Section 15A(1) and (3) of the Sexual Offences Act 2003",
                            "sequenceNumber": 2,
                            "listNo": 2,
                            "offenceCode": "SX03224"
                        }
                    ],
                    "defendantName": "Wilhelmine Schuppe",
                    "name": {
                        "forename1": "Wilhelmine",
                        "surname": "Schuppe"
                    },
                    "defendantAddress": {
                        "line1": "10",
                        "line2": "Ching street",
                        "line3": "Chong Road",
                        "line4": "Great Yarmouth",
                        "postcode": "NR30 2HG"
                    },
                    "defendantDob": "1993-02-01",
                    "defendantSex": "M",
                    "defendantType": "PERSON",
                    "defendantId": "59ef7ab6-c74e-4da7-b159-913b2af6b593",
                    "createdToday": false,
                    "removed": false,
                    "numberOfPossibleMatches": 0,
                    "caseComments": [],
                    "hearingEventType": "ConfirmedOrUpdated",
                    "confirmedOffender": false,
                    "personId": "e2e9dcfa-2a01-4894-a26a-9fe4ebb28927",
                    "caseMarkers": [
                        {
                            "markerTypeDescription": "Vulnerable or intimidated victim"
                        }
                    ],
                    "probationStatusActual": "UNCONFIRMED_NO_RECORD"
                },
                {
                    "caseId": "dc826323-8e1a-45e6-8fd2-78d231bc2f94",
                    "hearingId": "f8fd8bfe-0ead-4e8e-963b-04addeccf325",
                    "hearingType": "Trial",
                    "urn": "43V84J08V3J",
                    "pnc": "2023/4433736P",
                    "cro": "200750/23F",
                    "courtCode": "B14LO",
                    "courtRoom": "9",
                    "source": "COMMON_PLATFORM",
                    "sessionStartTime": "2023-11-29T16:53:30",
                    "session": "AFTERNOON",
                    "probationStatus": "No record",
                    "offences": [
                        {
                            "offenceTitle": "Repetitious song playing (Girls just want to have fun)",
                            "offenceSummary": "Detailed summary of the test offence: Repetitious song playing (Girls just want to have fun)",
                            "act": "Contrary to Section 4A(1) and (5) of the Public Order Act 1986.",
                            "sequenceNumber": 1,
                            "listNo": 4,
                            "offenceCode": "PU86116",
                            "plea": {
                                "pleaValue": "NOT_GUILTY",
                                "pleaDate": "2023-07-05"
                            }
                        },
                        {
                            "offenceTitle": "Possess a television set with intent to install / use without a licence",
                            "offenceSummary": "Detailed summary of the test offence: Possess a television set with intent to install / use without a licence",
                            "act": "Contrary to Section 15A(1) and (3) of the Sexual Offences Act 2003",
                            "sequenceNumber": 2,
                            "listNo": 7,
                            "offenceCode": "SX03224"
                        }
                    ],
                    "defendantName": "Jeromy Ryan",
                    "name": {
                        "forename1": "Jeromy",
                        "surname": "Ryan"
                    },
                    "defendantAddress": {
                        "line1": "10",
                        "line2": "Ching street",
                        "line3": "Chong Road",
                        "line4": "Great Yarmouth",
                        "postcode": "NR30 2HG"
                    },
                    "defendantDob": "1977-10-10",
                    "defendantSex": "M",
                    "defendantType": "PERSON",
                    "defendantId": "f8fd8bfe-0ead-4e8e-963b-04addeccf325",
                    "createdToday": false,
                    "removed": false,
                    "numberOfPossibleMatches": 0,
                    "caseComments": [],
                    "hearingEventType": "ConfirmedOrUpdated",
                    "confirmedOffender": false,
                    "personId": "cea60ab6-c161-422b-9bc8-7be625d861c5",
                    "caseMarkers": [
                        {
                            "markerTypeDescription": "Vulnerable or intimidated victim"
                        }
                    ],
                    "probationStatusActual": "UNCONFIRMED_NO_RECORD"
                },
                {
                    "caseId": "b2bd1b25-cd61-4c6c-bac0-a6bc3fc89303",
                    "hearingId": "5cd007ac-4cd2-4842-8477-ba46050e99dc",
                    "hearingType": "Trial",
                    "crn": "X346204",
                    "urn": "9U92BB48L8C",
                    "pnc": "2004/0046583U",
                    "cro": "12345ABCDEF",
                    "courtCode": "B14LO",
                    "courtRoom": "9",
                    "source": "COMMON_PLATFORM",
                    "sessionStartTime": "2023-11-29T16:53:38",
                    "session": "AFTERNOON",
                    "probationStatus": "Current",
                    "previouslyKnownTerminationDate": "2022-09-30",
                    "suspendedSentenceOrder": false,
                    "breach": true,
                    "preSentenceActivity": true,
                    "offences": [
                        {
                            "offenceTitle": "Use / install a television set without a licence",
                            "offenceSummary": "Detailed summary of the test offence: Use / install a television set without a licence",
                            "act": "Contrary to Section 4A(1) and (5) of the Public Order Act 1986.",
                            "sequenceNumber": 1,
                            "listNo": 1,
                            "offenceCode": "PU86116",
                            "plea": {
                                "pleaValue": "NOT_GUILTY",
                                "pleaDate": "2023-07-05"
                            }
                        },
                        {
                            "offenceTitle": "Possess a television set with intent to install / use without a licence",
                            "offenceSummary": "Detailed summary of the test offence: Possess a television set with intent to install / use without a licence",
                            "act": "Contrary to Section 15A(1) and (3) of the Sexual Offences Act 2003",
                            "sequenceNumber": 2,
                            "listNo": 1,
                            "offenceCode": "SX03224"
                        }
                    ],
                    "defendantName": "Arthur Morgan",
                    "name": {
                        "forename1": "Arthur",
                        "surname": "Morgan"
                    },
                    "defendantAddress": {
                        "line1": "13 Wind Street",
                        "line2": "Swansea",
                        "line3": "Wales",
                        "line4": "UK",
                        "postcode": "SA1 1FU"
                    },
                    "defendantDob": "1975-01-01",
                    "defendantSex": "M",
                    "defendantType": "PERSON",
                    "defendantId": "5cd007ac-4cd2-4842-8477-ba46050e99dc",
                    "createdToday": false,
                    "removed": false,
                    "numberOfPossibleMatches": 1,
                    "awaitingPsr": true,
                    "caseComments": [],
                    "hearingEventType": "ConfirmedOrUpdated",
                    "confirmedOffender": false,
                    "personId": "9eff1735-42ce-441e-b872-bb08a78dd0f8",
                    "caseMarkers": [
                        {
                            "markerTypeDescription": "Vulnerable or intimidated victim"
                        }
                    ],
                    "probationStatusActual": "CURRENT"
                },
                {
                    "caseId": "940e9dee-1c86-4e59-8913-10214c9cbedc",
                    "hearingId": "67a2dd3f-cfde-4e17-91f5-a61432139799",
                    "hearingType": "Trial",
                    "urn": "27ZO2V4ZU2K",
                    "pnc": "1965/0046583U",
                    "cro": "199999ABCDEF",
                    "courtCode": "B14LO",
                    "courtRoom": "9",
                    "source": "COMMON_PLATFORM",
                    "sessionStartTime": "2023-11-29T16:53:44",
                    "session": "AFTERNOON",
                    "probationStatus": "No record",
                    "offences": [
                        {
                            "offenceTitle": "Repetitious song playing (Girls just want to have fun)",
                            "offenceSummary": "It's just been on the radio too often.",
                            "act": "repetitious song playing.",
                            "sequenceNumber": 1,
                            "listNo": 4,
                            "offenceCode": "CJO3523"
                        }
                    ],
                    "defendantName": "Cyndi Craw LAUPER",
                    "name": {
                        "forename1": "Cyndi",
                        "forename2": "Craw",
                        "surname": "LAUPER"
                    },
                    "defendantAddress": {
                        "line1": "Studio 54",
                        "line5": "NEW YORK",
                        "postcode": "NY1 1NY"
                    },
                    "defendantDob": "1965-01-01",
                    "defendantSex": "NS",
                    "defendantType": "PERSON",
                    "defendantId": "67a2dd3f-cfde-4e17-91f5-a61432139799",
                    "createdToday": false,
                    "removed": false,
                    "numberOfPossibleMatches": 0,
                    "caseComments": [],
                    "hearingEventType": "ConfirmedOrUpdated",
                    "confirmedOffender": false,
                    "personId": "8a5990b6-6f1a-4af0-9589-c44333976b99",
                    "caseMarkers": [
                        {
                            "markerTypeDescription": "Vulnerable or intimidated victim"
                        }
                    ],
                    "probationStatusActual": "UNCONFIRMED_NO_RECORD"
                },
                {
                    "caseId": "a5ee804c-641e-4df7-9473-85fb49f7bc60",
                    "hearingId": "46294c18-a3b0-492c-b747-4aff8d96d40b",
                    "hearingType": "Trial",
                    "crn": "X055129",
                    "urn": "2Z726848576",
                    "courtCode": "B14LO",
                    "courtRoom": "9",
                    "source": "COMMON_PLATFORM",
                    "sessionStartTime": "2023-11-29T16:53:46",
                    "session": "AFTERNOON",
                    "probationStatus": "Current",
                    "suspendedSentenceOrder": false,
                    "breach": false,
                    "preSentenceActivity": false,
                    "offences": [
                        {
                            "offenceTitle": "Repetitious song playing (Girls just want to have fun)",
                            "offenceSummary": "Detailed summary of the test offence: Repetitious song playing (Girls just want to have fun)",
                            "act": "Contrary to Section 4A(1) and (5) of the Public Order Act 1986.",
                            "sequenceNumber": 1,
                            "listNo": 1,
                            "offenceCode": "PU86116",
                            "plea": {
                                "pleaValue": "NOT_GUILTY",
                                "pleaDate": "2023-07-05"
                            }
                        },
                        {
                            "offenceTitle": "Wound / inflict grievous bodily harm without intent",
                            "offenceSummary": "Detailed summary of the test offence: Wound / inflict grievous bodily harm without intent",
                            "act": "Contrary to Section 15A(1) and (3) of the Sexual Offences Act 2003",
                            "sequenceNumber": 2,
                            "listNo": 9,
                            "offenceCode": "SX03224"
                        }
                    ],
                    "defendantName": "Joe Bloggs",
                    "name": {
                        "forename1": "Joe",
                        "surname": "Bloggs"
                    },
                    "defendantAddress": {
                        "line1": "10",
                        "line2": "Ching street",
                        "line3": "Chong Road",
                        "line4": "Great Yarmouth",
                        "postcode": "NR30 2HG"
                    },
                    "defendantDob": "1993-02-01",
                    "defendantSex": "M",
                    "defendantType": "PERSON",
                    "defendantId": "46294c18-a3b0-492c-b747-4aff8d96d40b",
                    "createdToday": false,
                    "removed": false,
                    "numberOfPossibleMatches": 1,
                    "awaitingPsr": false,
                    "caseComments": [],
                    "hearingEventType": "ConfirmedOrUpdated",
                    "confirmedOffender": false,
                    "personId": "634acdda-cb20-4179-bc59-6674a580ae8e",
                    "caseMarkers": [
                        {
                            "markerTypeDescription": "Vulnerable or intimidated victim"
                        }
                    ],
                    "probationStatusActual": "CURRENT"
                },
                {
                    "caseId": "976a25cd-09fb-4a50-a5d3-e273acd136d9",
                    "hearingId": "7e891cb8-a7fb-479f-a2f3-5e08f67b3a9f",
                    "hearingType": "Trial",
                    "crn": "X055129",
                    "urn": "I67564878CR",
                    "courtCode": "B14LO",
                    "courtRoom": "9",
                    "source": "COMMON_PLATFORM",
                    "sessionStartTime": "2023-11-29T16:53:48",
                    "session": "AFTERNOON",
                    "probationStatus": "Current",
                    "suspendedSentenceOrder": false,
                    "breach": false,
                    "preSentenceActivity": false,
                    "offences": [
                        {
                            "offenceTitle": "Repetitious song playing (Girls just want to have fun)",
                            "offenceSummary": "Detailed summary of the test offence: Repetitious song playing (Girls just want to have fun)",
                            "act": "Contrary to Section 4A(1) and (5) of the Public Order Act 1986.",
                            "sequenceNumber": 1,
                            "listNo": 5,
                            "offenceCode": "PU86116",
                            "plea": {
                                "pleaValue": "NOT_GUILTY",
                                "pleaDate": "2023-07-05"
                            }
                        },
                        {
                            "offenceTitle": "Obstruct person executing search warrant for TV receiver",
                            "offenceSummary": "Detailed summary of the test offence: Obstruct person executing search warrant for TV receiver",
                            "act": "Contrary to Section 15A(1) and (3) of the Sexual Offences Act 2003",
                            "sequenceNumber": 2,
                            "listNo": 9,
                            "offenceCode": "SX03224"
                        }
                    ],
                    "defendantName": "Joe Bloggs",
                    "name": {
                        "forename1": "Joe",
                        "surname": "Bloggs"
                    },
                    "defendantAddress": {
                        "line1": "10",
                        "line2": "Ching street",
                        "line3": "Chong Road",
                        "line4": "Great Yarmouth",
                        "postcode": "NR30 2HG"
                    },
                    "defendantDob": "1993-02-01",
                    "defendantSex": "M",
                    "defendantType": "PERSON",
                    "defendantId": "7e891cb8-a7fb-479f-a2f3-5e08f67b3a9f",
                    "createdToday": false,
                    "removed": false,
                    "numberOfPossibleMatches": 1,
                    "awaitingPsr": false,
                    "caseComments": [],
                    "hearingEventType": "ConfirmedOrUpdated",
                    "confirmedOffender": false,
                    "personId": "fa4a72ad-f236-44da-afbe-e8a491cb385e",
                    "caseMarkers": [
                        {
                            "markerTypeDescription": "Vulnerable or intimidated victim"
                        }
                    ],
                    "probationStatusActual": "CURRENT"
                },
                {
                    "caseId": "24b700ec-2d61-4c53-8449-704052fb90d8",
                    "hearingId": "4e438357-463c-4a23-a7a0-0be6f2c41f23",
                    "hearingType": "Trial",
                    "crn": "X055129",
                    "urn": "433541YZZ6X",
                    "courtCode": "B14LO",
                    "courtRoom": "9",
                    "source": "COMMON_PLATFORM",
                    "sessionStartTime": "2023-11-29T16:53:48",
                    "session": "AFTERNOON",
                    "probationStatus": "Current",
                    "suspendedSentenceOrder": false,
                    "breach": false,
                    "preSentenceActivity": false,
                    "offences": [
                        {
                            "offenceTitle": "Putting hands in air like they just don't care",
                            "offenceSummary": "Detailed summary of the test offence: Putting hands in air like they just don't care",
                            "act": "Contrary to Section 4A(1) and (5) of the Public Order Act 1986.",
                            "sequenceNumber": 1,
                            "listNo": 1,
                            "offenceCode": "PU86116",
                            "plea": {
                                "pleaValue": "NOT_GUILTY",
                                "pleaDate": "2023-07-05"
                            }
                        },
                        {
                            "offenceTitle": "Wound / inflict grievous bodily harm without intent",
                            "offenceSummary": "Detailed summary of the test offence: Wound / inflict grievous bodily harm without intent",
                            "act": "Contrary to Section 15A(1) and (3) of the Sexual Offences Act 2003",
                            "sequenceNumber": 2,
                            "listNo": 5,
                            "offenceCode": "SX03224"
                        }
                    ],
                    "defendantName": "Joe Bloggs",
                    "name": {
                        "forename1": "Joe",
                        "surname": "Bloggs"
                    },
                    "defendantAddress": {
                        "line1": "10",
                        "line2": "Ching street",
                        "line3": "Chong Road",
                        "line4": "Great Yarmouth",
                        "postcode": "NR30 2HG"
                    },
                    "defendantDob": "1993-02-01",
                    "defendantSex": "M",
                    "defendantType": "PERSON",
                    "defendantId": "4e438357-463c-4a23-a7a0-0be6f2c41f23",
                    "createdToday": false,
                    "removed": false,
                    "numberOfPossibleMatches": 1,
                    "awaitingPsr": false,
                    "caseComments": [],
                    "hearingEventType": "ConfirmedOrUpdated",
                    "confirmedOffender": false,
                    "personId": "88ae60bb-77a4-488f-b5ce-a79e82bd2625",
                    "caseMarkers": [
                        {
                            "markerTypeDescription": "Vulnerable or intimidated victim"
                        }
                    ],
                    "probationStatusActual": "CURRENT"
                },
                {
                    "caseId": "46e184a2-d467-48d0-912b-821073c9fb10",
                    "hearingId": "f8f2789a-ba88-4ef5-b3b0-ce1733fe8e6a",
                    "hearingType": "Trial",
                    "urn": "Z0Y7R3Y9P56",
                    "pnc": "2023/4433736P",
                    "cro": "200750/23F",
                    "courtCode": "B14LO",
                    "courtRoom": "9",
                    "source": "COMMON_PLATFORM",
                    "sessionStartTime": "2023-11-29T16:53:50",
                    "session": "AFTERNOON",
                    "probationStatus": "No record",
                    "offences": [
                        {
                            "offenceTitle": "Wound / inflict grievous bodily harm without intent",
                            "offenceSummary": "Detailed summary of the test offence: Wound / inflict grievous bodily harm without intent",
                            "act": "Contrary to Section 4A(1) and (5) of the Public Order Act 1986.",
                            "sequenceNumber": 1,
                            "listNo": 1,
                            "offenceCode": "PU86116",
                            "plea": {
                                "pleaValue": "NOT_GUILTY",
                                "pleaDate": "2023-07-05"
                            }
                        },
                        {
                            "offenceTitle": "Wound / inflict grievous bodily harm without intent",
                            "offenceSummary": "Detailed summary of the test offence: Wound / inflict grievous bodily harm without intent",
                            "act": "Contrary to Section 15A(1) and (3) of the Sexual Offences Act 2003",
                            "sequenceNumber": 2,
                            "listNo": 5,
                            "offenceCode": "SX03224"
                        }
                    ],
                    "defendantName": "Stanton Hodkiewicz",
                    "name": {
                        "forename1": "Stanton",
                        "surname": "Hodkiewicz"
                    },
                    "defendantAddress": {
                        "line1": "10",
                        "line2": "Ching street",
                        "line3": "Chong Road",
                        "line4": "Great Yarmouth",
                        "postcode": "NR30 2HG"
                    },
                    "defendantDob": "1977-10-10",
                    "defendantSex": "M",
                    "defendantType": "PERSON",
                    "defendantId": "f8f2789a-ba88-4ef5-b3b0-ce1733fe8e6a",
                    "createdToday": false,
                    "removed": false,
                    "numberOfPossibleMatches": 0,
                    "caseComments": [],
                    "hearingEventType": "ConfirmedOrUpdated",
                    "confirmedOffender": false,
                    "personId": "7da7f12f-c432-40cc-83ba-de2d615f4a4d",
                    "caseMarkers": [
                        {
                            "markerTypeDescription": "Vulnerable or intimidated victim"
                        }
                    ],
                    "probationStatusActual": "UNCONFIRMED_NO_RECORD"
                }
            ],
            "totalPages": 3,
            "page": 1,
            "totalElements": 29,
            "possibleMatchesCount": 0,
            "recentlyAddedCount": 0,
            "courtRoomFilters": null
        }
    }
}
